Blood stream infections in 16HN
…
Here are the variables we need:

data3 <- data2 %>% 
  select(habsi, DOD, rand2hos, deathICU, death28, death90, CLBSI) %>% 
  mutate(timeICU = as.integer(rand2hos),
         time28  = ifelse(DOD < 29, DOD, 28),
         time90  = DOD) %>% 
  select(-DOD, -rand2hos)

Which looks like this:

data3

## # A tibble: 591 x 8
##    habsi deathICU death28 death90 CLBSI timeICU time28 time90
##    <lgl> <lgl>    <lgl>   <lgl>   <lgl>   <int>  <dbl>  <int>
##  1 FALSE FALSE    FALSE   FALSE   FALSE      11     28     90
##  2 FALSE FALSE    FALSE   TRUE    FALSE      23     28     58
##  3 FALSE FALSE    FALSE   FALSE   FALSE      NA     28     90
##  4 FALSE FALSE    FALSE   FALSE   FALSE      14     28     90
##  5 FALSE TRUE     TRUE    TRUE    FALSE      NA      1      1
##  6 FALSE TRUE     TRUE    TRUE    FALSE      NA     19     19
##  7 FALSE FALSE    FALSE   FALSE   FALSE      13     28     90
##  8 FALSE FALSE    FALSE   FALSE   FALSE      23     28     90
##  9 FALSE TRUE     TRUE    TRUE    FALSE       1      2      2
## 10 FALSE FALSE    FALSE   FALSE   FALSE      17     28     90
## #  with 581 more rows
…
